…
Load the data file

``` r
UberProjectRawData <- read_csv("./UberProjectRawData.csv")
```

    ## # A tibble: 32 × 18
    ##    `Response ID` Gender  Major OnlineTaxiService Frequency Time  Cost  NumPeople
    ##            <dbl> <chr>   <chr> <chr>             <chr>     <chr> <chr>     <dbl>
    ##  1     127966762 Female  Fina… Yes               Often     Morn… $50-…         1
    ##  2     127992777 Male    Acco… Yes               Sometimes Noon… $50-…         2
    ##  3     128824959 Male    Fina… Yes               Selfdom   Midn… $75-…         1
    ##  4     129122186 Male    Acco… Yes               Always    Midn… $125…         1
    ##  5     129123976 Prefer… Mark… Yes               Often     Midn… more…         2
    ##  6     129123992 Male    Fina… Yes               Selfdom   Midn… more…         1
    ##  7     129124004 Female  Entr… Yes               Always    Night $100…         1
    ##  8     129124015 Female  Mark… Yes               Sometimes Night $100…         2
    ##  9     129124024 Male    I am… Yes               Sometimes Midn… more…         4
    ## 10     129124046 Male    Huma… Yes               Selfdom   Midn… more…         3
    ## # ℹ 22 more rows
    ## # ℹ 10 more variables: `Std-or-Prem` <chr>, MainTrans <chr>,
    ## #   Importance_Price <dbl>, Importance_Safety <dbl>, Importance_Conv <dbl>,
    ## #   Importance_Cus <dbl>, Improve_Price <dbl>, Improve_Safety <dbl>,
    ## #   Improve_Conv <dbl>, Improve_Cus <dbl>

## Data cleaning

After filtering out those did not use Uber, columns required for
analysis are selected and arrange according to gender.

``` r
s1<-UberProjectRawData %>% 
  filter(OnlineTaxiService=="Yes") %>% 
  select(2,11,12,13,14) %>% 
  arrange(Gender)
```

    ## # A tibble: 29 × 5
    ##    Gender Importance_Price Importance_Safety Importance_Conv Importance_Cus
    ##    <chr>             <dbl>             <dbl>           <dbl>          <dbl>
    ##  1 Female                5                 5               5              5
    ##  2 Female                5                 4               5              3
    ##  3 Female                3                 3               5              2
    ##  4 Female                1                 3               5              4
    ##  5 Female                5                 5               4              4
    ##  6 Female                5                 4               3              5
    ##  7 Female                5                 5               4              3
    ##  8 Female                3                 3               3              3
    ##  9 Female                5                 3               4              2
    ## 10 Female                5                 5               4              3
    ## # ℹ 19 more rows
…
